{
    "name": "WidgetsAsm",
    "rootNamespace": "",
    "references": [
        "GUID:1e63a1293d55cde46be570d632f93573",
        "GUID:6055be8ebefd69e48b49212b09b47b2f"
    ],
    "includePlatforms": [],
    "excludePlatforms": [],
    "allowUnsafeCode": false,
    "overrideReferences": false,
    "precompiledReferences": [],
    "autoReferenced": true,
    "defineConstraints": [],
    "versionDefines": [],
    "noEngineReferences": false
}