{
    "name": "GameModule",
    "rootNamespace": "",
    "references": [
        "GUID:5c693758f2ca9854784e83ce5d61ecdd",
        "GUID:6b6fdcc8088816b4c86d92f3a7056535",
        "GUID:eba4ced672c1e01438baaee2529eba79",
        "GUID:1e63a1293d55cde46be570d632f93573"
    ],
    "includePlatforms": [],
    "excludePlatforms": [],
    "allowUnsafeCode": false,
    "overrideReferences": false,
    "precompiledReferences": [],
    "autoReferenced": true,
    "defineConstraints": [],
    "versionDefines": [],
    "noEngineReferences": false
}