{
    "name": "PointCountMVP",
    "rootNamespace": "",
    "references": [
        "GUID:1e63a1293d55cde46be570d632f93573",
        "GUID:6b6fdcc8088816b4c86d92f3a7056535",
        "GUID:6055be8ebefd69e48b49212b09b47b2f",
        "GUID:84761cb41144d754bb5a18f8afb20f13",
        "GUID:eba4ced672c1e01438baaee2529eba79",
        "GUID:2b47b5afce34dd24ba49a08f8c1b7be8",
        "GUID:5c693758f2ca9854784e83ce5d61ecdd",
        "GUID:28740291284e7a342b401b7e6a8f5263"
    ],
    "includePlatforms": [],
    "excludePlatforms": [],
    "allowUnsafeCode": false,
    "overrideReferences": false,
    "precompiledReferences": [],
    "autoReferenced": true,
    "defineConstraints": [],
    "versionDefines": [],
    "noEngineReferences": false
}